Key,Description,Standard
SAY.em1.21.,,"Löydät taukohuoneesta päivän lehden, jossa on artikkeli Leanista ja sen perässä tietovisa."
SAY.em1.430.,,"Huomaat, että joku on jo aloittanut visan täyttämisen ja siinä on enää kymmenen oikein-väärin väittämää jäljellä."
SAY.em1.23.,,Ennen kynään tarttumista päätät lukea artikkelin tiivistelmäosuuden läpi. Saat yhden minuutin tekstin lukemiseen!\nAika alkaa kun klikkaat pöydällä olevaa lehteä.
WRITE.em1.30,,"	Lean käsitetään yleensä pelkästään hukkien \npoistomenetelmänä. Sen perimmäinen tarkoitus \non kuitenkin lyhentää läpimenoaikaa eli optimoida \nkokonaistuotanto. \n	Läpimenoaikaa lyhennetään \nkeskittymällä vain yhteen toimintoon tai prosessiin \nkerrallaan. Läpimenoaika on työn suorittamiseen \nkäytetty aika, mikä pitää sisällään sekä asiakkaalle \narvoa lisäävän ja ei-arvoa lisäävän ajan. \n	Läpimenoajan pidentyessä aikaa käytetään \nei-arvoa lisäävään tuotantoon. "
WRITE.em1.31,,"	Leaniin on syntynyt paljon erilaisia \ntyökaluja, joiden avulla prosessien \nvälistä hukkaa voidaan tunnistaa ja \npienentää. Näitä työkaluja ovat mm. 5S, \nKaizen, SMED, PDCA, Kanban ja Six Sigma. \n	Leanin kahdeksan eri hukanmuotoa \nsairaanhoitopiireissä ovat: ylituotanto, odottaminen, \nkuljetus, ylityö (saman työn tekeminen), varastointi, \ntarpeeton liike, palveluvirheet ja käyttämätön \nosaaminen. \n	Lean-visio vaatii toteutuakseen \nselkeät tavoitteet. Tavoitteen täytyy olla \nkonkreettinen ja mitattavissa \nesim. vähemmän virheitä tai lyhyempi jaksoaika. \nVisiossa on seuraavat komponentit: nollavirhe, \n100 prosenttinen lisäarvo, kappaleen virtaus läpi \nprosessin ja varmuus työpaikasta."
WRITE.em1.587,,"	Lean on peräisin Japanista. Se kehitettiin nostamaan \nToyota Motor Corporationin tuottavuutta keksimällä toimenpiteitä, \njoilla pystyttäisiin tekemään enemmän vähemmällä."
SAY.em1.77.,,Lean pohjautuu maatalouteen?
MENU.em1.35,,Tosi
MENU.em1.36,,Epätosi
MENU.em1.51,,Tosi
MENU.em1.52,,Epätosi
MENU.em1.47,,Tosi
MENU.em1.48,,Epätosi
SAY.em1.83.,,Leanissa keskitytään kokonaisuuden optimointiin?
MENU.em1.126,,Tosi
MENU.em1.127,,Epätosi
MENU.em1.114,,Tosi
MENU.em1.115,,Epätosi
SAY.em1.181.,,Lean pohjautuu autonvalmistuksen prosesseihin.
MENU.em1.128,,Tosi
MENU.em1.129,,Epätosi
SAY.em1.182.,,Lean pohjautuu autonvalmistuksen prosesseihin.
MENU.em1.92,,Tosi
MENU.em1.93,,Epätosi
MENU.em1.103,,Tosi
MENU.em1.104,,Epätosi
MENU.em1.157,,Tosi
MENU.em1.158,,Epätosi
MENU.em1.145,,Tosi
MENU.em1.146,,Epätosi
SAY.em1.174.,,Läpimenoajan pidentyessä aikaa käytetään muuhunkin kuin arvon tuottamiseen asiakkaalle.
MENU.em1.175,,Tosi
MENU.em1.176,,Epätosi
MENU.em1.201,,Tosi
MENU.em1.202,,Epätosi
MENU.em1.188,,Tosi
MENU.em1.189,,Epätosi
SAY.em1.214.,,Lean on prosessijohtamisen malli?
MENU.em1.215,,Tosi
MENU.em1.216,,Epätosi
MENU.em1.235,,Tosi
MENU.em1.236,,Epätosi
MENU.em1.223,,Tosi
MENU.em1.224,,Epätosi
SAY.em1.251.,,"Hukkia ovat mm. liian suuret palkat, asiakaspalvelu ja varastointi?"
MENU.em1.252,,Tosi
MENU.em1.253,,Epätosi
MENU.em1.268,,Tosi
MENU.em1.269,,Epätosi
SAY.em1.279.,,"Hukkia ovat mm. käyttämätön osaaminen, odottaminen ja varastointi."
MENU.em1.257,,Tosi
MENU.em1.258,,Epätosi
SAY.em1.256.,,"Hukkia ovat mm. käyttämätön osaaminen, odottaminen ja varastointi."
SAY.em1.288.,,Pdca -työkalu tarkoittaa Plan-Do-Check-Act?
MENU.em1.289,,Tosi
MENU.em1.290,,Epätosi
MENU.em1.305,,Tosi
MENU.em1.306,,Epätosi
MENU.em1.293,,Tosi
MENU.em1.294,,Epätosi
SAY.em1.320.,,Jokaisen työvaiheen täytyy viedä asiakkaan asiaa eteenpäin?
MENU.em1.321,,Tosi
MENU.em1.322,,Epätosi
MENU.em1.327,,Tosi
MENU.em1.328,,Epätosi
MENU.em1.339,,Tosi
MENU.em1.340,,Epätosi
SAY.em1.354.,,Läpimenoaika on työvuoron kesto?
MENU.em1.355,,Tosi
MENU.em1.356,,Epätosi
MENU.em1.375,,Tosi
MENU.em1.376,,Epätosi
SAY.em1.386.,,Läpimenoaika on aika prosessin alusta sen loppuun.
MENU.em1.361,,Tosi
MENU.em1.362,,Epätosi
SAY.em1.372.,,Läpimenoaika on aika prosessin alusta sen loppuun.
SAY.em1.392.,,"Lean vision neljä komponenttia ovat 0 virhe, 100% lisäarvo, yhden kappaleen virtaus läpi prosessin ja varmuus työpaikasta?"
MENU.em1.393,,Tosi
MENU.em1.394,,Epätosi
MENU.em1.397,,Tosi
MENU.em1.398,,Epätosi
MENU.em1.409,,Tosi
MENU.em1.410,,Epätosi
SAY.em1.427.,,Seuraavaksi vastaat 10 oikein - väärin väittämään. Sinulla on minuutti aikaa. Aika alkaa kun klikkaat täältä.
SAY.em1.586.,,"Aika ehti loppumaan, mutta nyt pitää mennä jatkamaan töitä."
WRITE.em1.572,,{$ajastin_k}
SAY.loppu.585.,,"Sait {$oikeita} vastausta oikein. Nyt kannattaa tutustua materiaaliin vielä uudelleen, sillä tavoin saat varmasti paljon etua omaankin työskentelyysi!"
SAY.loppu.587.,,"Sait {$oikeita} pistettä. Sinulla on hyvä yleiskuva Leanin perusteista, mutta yksityiskohdissa riittää vielä hiomista."
SAY.loppu.589.,,"Sait {$oikeita} pistettä. Se meni jo varsin hyvin! Muista kuitenkin, että jatkuva parantaminen on yksi Leanin perusperiaatteista!"
SAY.loppu.591.,,Täydellistä!
SAY.loppu.593.,,Visan täyttämisen jälkeen jaksat taas lähteä jatkamaan päivän töitä siitä mihin ne jäivät kesken.
