Key,Description,Standard
SAY.aamukahvi.4.,,"Olet kotona juomassa aamukahvia, kun puhelimesi alkaa soida.{w}{w=.5}\nVastaa puhelimeen klikkaamalla."
SAY.aamukahvi.32.,,Esimies kiittää sinua yhteistyöstä ja toivottaa hyvää työpäivää. Hörppäät kahvin loppuun ja lähdet töihin.
SAY.aamukahvi.37.,,Soittaja on esimiehesi. Hänellä on sinulle erikoistehtävä iltapäiväksi.
SAY.aamukahvi.38.,,Saat valita mieleisesi kolmesta vaihtoehdosta:
MENU.aamukahvi.39,,Opiskelijan perehdytys
MENU.aamukahvi.40,,Toimittajan haastattelu
MENU.aamukahvi.41,,Koulutukseen osallistuminen
SAY.esittely.5.,,Hei! {w} {w=0.3} Tämän pelin tarkoitus on simuloida työpäivääsi ja toivottavasti herättää ajattelemaan uudenlaisia tapoja tehdä vanhoja tuttuja asioita.{w} {w=1.0}
SAY.esittely.6.,,Käydään ensiksi läpi toiminnot... {w} {w=0.2}
SAY.esittely.12.,,Pääset etenemään tekstissä klikkaamalla tänne laatikkoon.
SAY.esittely.7.,,"Peli koostuu monivalintakysymyksistä, jotka sijoittuvat sairaalan ympäristöön ja päivystysprosessiin. Esimerkiksi näin:{w} {w=0.5}"
MENU.esittely.2,,Tästä!
MENU.esittely.4,,Täältä näin!
SAY.esittely.99.,,"Ole huolellinen, sillä vastauksesi vaikuttavat pelin etenemiseen!"
SAY.esittely.10.,,"Kysymysten lisäksi peli sisältää minipelejä, jotka ohjeistetaan erikseen."
SAY.esittely.9.,,"Nyt tiedät kaiken tarpeellisen, joten on aika aloittaa..."
WRITE.esittely.21,,"Tämä inforuutu antaa\nsinulle tärkeätä tietoa\nkulloisestakin kysymyksestä.\n\nInforuutuja ei ole pakko\navata, mutta se on\naina suositeltavaa!"
WRITE.esittely.74,,HENKILÖKOHTAINEN AVUSTAJA\n\nAlaa opiskeleva nuori henkilökohtaiseksi\navustajaksi kohtuuhintaan tästä puhelin-\nnumerosta\n				041-526278745\n				EI PILASOITTOJA KIITOS!!!
WRITE.esittely.71,,Näin toimit päivystyksessä!
WRITE.esittely.73,,"	1. Soita aina ensisijaisesti aukioloaikojen puitteissa\n\n	2. Puhelimessa arvioidaan kiireellisyys ja annetaan \njatko-ohjeet.\n\n	3. Mikäli tapaturma sattunut aukioloaikojen ulkopuolella,\nsoita suoraan päivystysnumeroon. Myös tapaturmat\nhoidetaan päivystyksessä.\n\n	4. Soita AINA 112 hätätilanteissa, kuten äkillisessä\nsairaskohtauksessa, tajuttomuudessa tai hengenvaarassa!\n"
WRITE.esittely.75,,Terveysaseman\n		aukioloajat
WRITE.esittely.72,,Arkisin ma-pe\n	08:00 - 16:00\nViikonloppuisin la-su\n	Suljettu\nAjanvarauspalvelut\navoinna ma-pe\n	08:00 - 16:00
WRITE.esittely.77,,Tunnetko olevasi\nväsynyt ja epävireessä?
WRITE.esittely.76,,"Uudenlainen luontaistuote\non tehty juuri sinua varten!\n\nVain 15,95€ kuussa niin\nsaat kaikki tarvitsemasi\nravinteet pysyäksesi \nelämäsi kunnossa,\niästä riippumatta!\nTILAA HETI OSOITTEESTA\nwww.totallynotahoax.org"
WRITE.esittely.80,,NÄIN TOIMIT HÄTÄTILANTEESSA!
WRITE.esittely.79,,Kun soitat hätänumeroon\n1. Mitä ja missä tapahtunut\n2. Toimi ohjeiden mukaan\n3. katkaise vasta luvan saatuasi!
WRITE.esittely.78,,"JOS UHRI ON TAJUTON:\n\n1. Yritä herättää hänet \n	ravistelemalla tai huutamalla.\n\n2. Jos uhri ei reagoi, tarkista\n	syke.\n\n3. Avaa hengitystiet ja tarkasta\n	poskella hengittääkö uhri.\n\n4. Mikäli uhri ei hengitä, aloita \n	paineluelvytys.\n	Muutoin siirrä uhri kylki-\n	asentoon\n\n5. Tarvittaessa jatka vuoroin \n	tekohengityksellä ja \n	paineluelvytyksellä."
WRITE.esittely.83,,Ammattimaista\n		Kivunlievitystä
WRITE.esittely.82,,"""Erilaiset puutumiset, huimaus,\nkäsien tai esimerkiksi \npolvien kiputilat\novat tyypillisiä naprapaatin \nhoitamia oireita."""
WRITE.esittely.81,,Löydä lähin \nnaprapaattisi \nnumerosta\n0800-0129958
WRITE.esittely.86,,OLETKO NÄHNYT\n		MINUA?
WRITE.esittely.85,,Raidallinen kissa kadonnut \nsairaalan ympäristöstä \n12.7.\nIlmoitathan mikäli havaitset!
WRITE.esittely.90,,040-3312356\n---------------------\n040-3312356\n---------------------\n040-3312356\n---------------------\n040-3312356\n---------------------\n040-3312356\n---------------------\n040-3312356\n---------------------\n040-3312356\n---------------------\n040-3312356\n---------------------\n040-3312356\n---------------------\n040-3312356\n---------------------\n040-3312356\n---------------------\n040-3312356
WRITE.esittely.84,,STAY COOL\n						BITE GUM
WRITE.esittely.88,,Hampaasi suosittelevat
WRITE.esittely.89,,G U M
WRITE.esittely.91,,Aseman kartta
SAY.aamupäivä.237.,,"Töihin saapuessasi huomaat, että ilmoitustaulu kaipaa siistimistä."
SAY.aamupäivä.238.,,Poista tarpeettomat ilmoitukset.
SAY.aamupäivä.23.,,Päivän ensimmäinen asiakas saapuu päivystykseen.
SAY.aamupäivä.124.,,Mikä on paras vaihtoehto kerätä asiakkaan tiedot?
MENU.aamupäivä.27,,Hoitaja kerää asiakkaan tiedot ja kirjaa ne samantien
MENU.aamupäivä.30,,"Tietojärjestelmä, josta tiedot vain tarkistetaan"
MENU.aamupäivä.28,,"Asiakas täyttää tiedot odottaessa, jos mahdollista, ja triage-huoeessa vain tarkistetaan tiedot"
MENU.aamupäivä.29,,En tiedä hoidontarpeen arvioinnista
SAY.aamupäivä.125.,,"Asiakas on 47-vuotias Martti, jolla on ranne kipeä. Hän on liukastunut kotipihassaan ja kaatunut kätensä päälle."
SAY.aamupäivä.242.,,Hänen kädestään on otettava röntgenkuva. Miten opastat hänet odottamaan kuvantamista?
MENU.aamupäivä.34,,Opastat suullisesti oikeaan paikkaan
MENU.aamupäivä.37,,Saatat hänet oikeaan paikkaan
MENU.aamupäivä.36,,Neuvot tutustumaan seinässä olevaan pohjakarttaan
MENU.aamupäivä.35,,Neuvot seuraamaan lattiassa olevia viivoja kohti oikeaa paikkaa
SAY.aamupäivä.540.,,Martti kiittää avustasi ja lähtee kohti kuvantamishuonetta.
SAY.aamupäivä.97.,,Poistuvaa Marttia seuratessasi huomaat käytävällä eksyneen näköisen asiakkaan.\nMiten toimit?
MENU.aamupäivä.98,,Menen auttamaan häntä
MENU.aamupäivä.100,,"Menen auttamaan, jos hän pyytää apua"
MENU.aamupäivä.99,,Tervehdin häntä ja jatkan työntekoani
SAY.aamupäivä.484.,,Palaat takaisin työpisteellesi.  {w} {w=0.5}
SAY.aamupäivä.150.,,"Töitä tehdessäsi saat uuden idean, joka tehostaisi työntekoa."
SAY.aamupäivä.151.,,Miten toimit saatuasi idean?
MENU.aamupäivä.152,,Otan menetelmän käyttöön työssäni
MENU.aamupäivä.156,,Kirjaan ideani kehitysideatauluun
MENU.aamupäivä.155,,Annan asian olla ja jatkan vanhalla tavalla
MENU.aamupäivä.154,,Ehdotan esimiehelle menetelmän testaamista ennen vakinaistamista
SAY.aamupäivä.483.,,Aamupäivän tehtävien jälkeen lähdet kohti esimiehen työhuonetta.
WRITE.aamupäivä.270,,"Tunnista asiakas. Iäkäs\ntai toimintarajoitteinen\nasiakas voi arvostaa,\nettä häntä saatetaan, \nkun taas nuorempi\nvoi haluta löytää tiensä itse. \n\nTärkeintä on varmistaa, \nettä asiakas löytää\nperille."
WRITE.aamupäivä.283,,"\nJokainen työntekijä\non oman alansa asiantuntija\nja pieneltä tuntuvat ideat\nsekä kehitysehdotukset\nvoivat parhaassa\ntapauksessa pelastaa\nihmishenkiä.\nVahvat ja pitkäikäisimmät\nyhteisöt ovat luoneet \ntäydellisyyteen tähtäävät\ntyömenetelmät työntekijöiden\nideoiden avulla.\nJatkuva parantaminen kehittää\nsekä työntekijöiden, että\nasiakkaiden viihtyvyyttä."
SAY.aamupäivä.377.,,Sattumalta esimiehesi kutsuu sinut luokseen keskustelemaan hoidon tarpeen arvioinnista.
SAY.aamupäivä.378.,,Ennen lähtöäsi huomaat työpisteesi olevan epäjärjestyksessä.
SAY.aamupäivä.379.,,Siistitkö työpisteesi ennen lähtöäsi?
MENU.aamupäivä.384,,Siistin työpisteeni palattuani
MENU.aamupäivä.387,,Siistin työpisteeni ennen lähtöäni
MENU.aamupäivä.386,,Pyrin pitämään työpisteeni siistinä kokoajan
MENU.aamupäivä.385,,Siivoaminen ja paikkojen järjestely jää kiireen vuoksi
WRITE.aamupäivä.545,,"Priorisointi on tärkeää.\nSiististä työpisteestä\nlöytää nopeasti tarvittavat\ntavarat.\n\nKun aikaa ei kulu turhaan\netsimiseen, taukojen\npitämiselle jää enemmän\naikaa."
SAY.ilmoitustaulu.60.,,Tämä kannattaa jättää esille!
SAY.ilmoitustaulu.63.,,Tämä kannattaa jättää esille!
SAY.ilmoitustaulu.82.,,Tämä kannattaa jättää esille!
SAY.ilmoitustaulu.85.,,Tämä kannattaa jättää esille!
SAY.ilmoitustaulu.101.,,"Hyvin tehty, tärkeät tiedot erottuvat nyt paremmin. {w} {w=0.5} Sitten pääsetkin aloittamaan työsi."
SAY.ilmoitustaulu.149.,,Pääset eroon taululle kuulumattomista ilmoituksista raahaamalla ne roskakorin päälle.
