%YAML 1.1
%TAG !u! tag:unity3d.com,2011:
--- !u!78 &1
TagManager:
  serializedVersion: 2
  tags: []
  layers:
  - Default
  - TransparentFX
  - Ignore Raycast
  - 
  - Water
  - UI
  - 
  - 
  - avustaja
  - ohje
  - 
  - 
  - 
  - 
  - 
  - 
  - 
  - 
  - 
  - 
  - 
  - 
  - 
  - 
  - 
  - 
  - 
  - 
  - 
  - 
  - 
  - 
  m_SortingLayers:
  - name: Default
    uniqueID: 0
    locked: 0
  - name: avustaja
    uniqueID: 2307388317
    locked: 0
  - name: myynti
    uniqueID: 2900683957
    locked: 0
  - name: naprapaatti
    uniqueID: 642757435
    locked: 0
  - name: purkka
    uniqueID: 1085061501
    locked: 0
  - name: kadonnut
    uniqueID: 3545895563
    locked: 0
  - name: meme
    uniqueID: 1449274955
    locked: 0
  - name: info
    uniqueID: 2727996515
    locked: 0
